digraph "coup"
{
 // LATEX_PDF_SIZE
  edge [fontname="Helvetica",fontsize="10",labelfontname="Helvetica",labelfontsize="10"];
  node [fontname="Helvetica",fontsize="10",shape=record];
  rankdir="RL";
  Node1 [label="coup",height=0.2,width=0.4,color="black", fillcolor="grey75", style="filled", fontcolor="black",tooltip="Fonction retournant le maillon choisit par le joueur actuel (ordinateur ou joueur humain)."];
  Node1 -> Node2 [dir="back",color="midnightblue",fontsize="10",style="solid",fontname="Helvetica"];
  Node2 [label="genListe",height=0.2,width=0.4,color="black", fillcolor="white", style="filled",URL="$arbre_8h.html#a24087b7c5cdb87642010d8ccbf8af11a",tooltip="Fonction remplissant le champ coupsGen d'un maillon."];
  Node2 -> Node3 [dir="back",color="midnightblue",fontsize="10",style="solid",fontname="Helvetica"];
  Node3 [label="trouverCoups",height=0.2,width=0.4,color="black", fillcolor="white", style="filled",URL="$arbre_8h.html#a2939211c90dd5defa4544b99258f99d0",tooltip="Fonction qui trouve les coups possibles pour le joueur actuel et remplie le champ coupsGen (Maillon)."];
  Node3 -> Node4 [dir="back",color="midnightblue",fontsize="10",style="solid",fontname="Helvetica"];
  Node4 [label="partie",height=0.2,width=0.4,color="black", fillcolor="white", style="filled",URL="$arbre_8h.html#a4f4c06f70fa3a86ce468909c44205fa3",tooltip="Fonction permettant de jouer une partie."];
  Node1 -> Node4 [dir="back",color="midnightblue",fontsize="10",style="solid",fontname="Helvetica"];
  Node1 -> Node3 [dir="back",color="midnightblue",fontsize="10",style="solid",fontname="Helvetica"];
}
