digraph "Programme/arbre.h"
{
 // LATEX_PDF_SIZE
  edge [fontname="Helvetica",fontsize="10",labelfontname="Helvetica",labelfontsize="10"];
  node [fontname="Helvetica",fontsize="10",shape=record];
  Node1 [label="Programme/arbre.h",height=0.2,width=0.4,color="black", fillcolor="grey75", style="filled", fontcolor="black",tooltip="Gestion de l'arbre des coups."];
  Node1 -> Node2 [dir="back",color="midnightblue",fontsize="10",style="solid",fontname="Helvetica"];
  Node2 [label="Programme/arbre.c",height=0.2,width=0.4,color="black", fillcolor="white", style="filled",URL="$arbre_8c_source.html",tooltip=" "];
  Node1 -> Node3 [dir="back",color="midnightblue",fontsize="10",style="solid",fontname="Helvetica"];
  Node3 [label="Programme/main.c",height=0.2,width=0.4,color="black", fillcolor="white", style="filled",URL="$main_8c_source.html",tooltip=" "];
}
