digraph "addHead"
{
 // LATEX_PDF_SIZE
  edge [fontname="Helvetica",fontsize="10",labelfontname="Helvetica",labelfontsize="10"];
  node [fontname="Helvetica",fontsize="10",shape=record];
  rankdir="RL";
  Node1 [label="addHead",height=0.2,width=0.4,color="black", fillcolor="grey75", style="filled", fontcolor="black",tooltip="Ajout d'un maillon au début de la liste."];
  Node1 -> Node2 [dir="back",color="midnightblue",fontsize="10",style="solid",fontname="Helvetica"];
  Node2 [label="genListe",height=0.2,width=0.4,color="black", fillcolor="white", style="filled",URL="$arbre_8h.html#a08ef93cc7f09d3b4de9fd4e4e2391266",tooltip="Fonction remplissant le champ coupsGen d'un maillon (Maillon)."];
  Node2 -> Node3 [dir="back",color="midnightblue",fontsize="10",style="solid",fontname="Helvetica"];
  Node3 [label="trouverCoups",height=0.2,width=0.4,color="black", fillcolor="white", style="filled",URL="$arbre_8h.html#a2939211c90dd5defa4544b99258f99d0",tooltip="Fonction qui trouve les coups possibles pour le joueur actuel et remplie le champ coupsGen (Maillon)."];
  Node3 -> Node4 [dir="back",color="midnightblue",fontsize="10",style="solid",fontname="Helvetica"];
  Node4 [label="minMaxDown",height=0.2,width=0.4,color="black", fillcolor="white", style="filled",URL="$minmax_8h.html#a8c2bb3a353eb624f404fb20ebb9105cc",tooltip="Fonction permettant de descendre à la profondeur voulue dans l'arbre des coups et de noter les coups ..."];
  Node4 -> Node5 [dir="back",color="midnightblue",fontsize="10",style="solid",fontname="Helvetica"];
  Node5 [label="choixMinMax",height=0.2,width=0.4,color="black", fillcolor="white", style="filled",URL="$minmax_8h.html#a181a123467b337296d3cc8a703a84063",tooltip="Fonction de détermination du meilleur coup à joueur dans une situation donnée."];
  Node5 -> Node6 [dir="back",color="midnightblue",fontsize="10",style="solid",fontname="Helvetica"];
  Node6 [label="coup",height=0.2,width=0.4,color="black", fillcolor="white", style="filled",URL="$arbre_8h.html#ac43c64ac304ee65c41ec787b5bec0cba",tooltip="Fonction retournant le maillon choisit par le joueur actuel (ordinateur ou joueur humain)."];
  Node6 -> Node7 [dir="back",color="midnightblue",fontsize="10",style="solid",fontname="Helvetica"];
  Node7 [label="partie",height=0.2,width=0.4,color="black", fillcolor="white", style="filled",URL="$arbre_8h.html#ac696805cabb269cf4765655efca586da",tooltip="Fonction permettant de jouer une partie et de retourner le vainqueur."];
  Node4 -> Node8 [dir="back",color="midnightblue",fontsize="10",style="solid",fontname="Helvetica"];
  Node8 [label="remplissageMinMax",height=0.2,width=0.4,color="black", fillcolor="white", style="filled",URL="$minmax_8h.html#a477297d4fd4f0353cef773d45f47733a",tooltip="Fonction de détermination du meilleur coup à joueur dans une situation donnée."];
  Node8 -> Node7 [dir="back",color="midnightblue",fontsize="10",style="solid",fontname="Helvetica"];
  Node3 -> Node9 [dir="back",color="midnightblue",fontsize="10",style="solid",fontname="Helvetica"];
  Node9 [label="noteCoups",height=0.2,width=0.4,color="black", fillcolor="white", style="filled",URL="$minmax_8h.html#af25fe4de427fc3c902afad095d2b4ac6",tooltip="Fonction d'attibution des notes aux coups générés à partir d'une situation donnée...."];
  Node9 -> Node4 [dir="back",color="midnightblue",fontsize="10",style="solid",fontname="Helvetica"];
  Node1 -> Node9 [dir="back",color="midnightblue",fontsize="10",style="solid",fontname="Helvetica"];
}
