digraph "valMax"
{
 // LATEX_PDF_SIZE
  edge [fontname="Helvetica",fontsize="10",labelfontname="Helvetica",labelfontsize="10"];
  node [fontname="Helvetica",fontsize="10",shape=record];
  rankdir="RL";
  Node1 [label="valMax",height=0.2,width=0.4,color="black", fillcolor="grey75", style="filled", fontcolor="black",tooltip="Fonction de détermination du poids maximum et du coup associé. Si plusieurs coups ont le même poids,..."];
  Node1 -> Node2 [dir="back",color="midnightblue",fontsize="10",style="solid",fontname="Helvetica"];
  Node2 [label="alphaBeta",height=0.2,width=0.4,color="black", fillcolor="white", style="filled",URL="$minmax_8h.html#a8722ec012dd891dc783a954046046558",tooltip="Fonction de détermination du meilleur coup à jouer dans une situation donnée."];
}
