digraph "bord"
{
 // LATEX_PDF_SIZE
  edge [fontname="Helvetica",fontsize="10",labelfontname="Helvetica",labelfontsize="10"];
  node [fontname="Helvetica",fontsize="10",shape=record];
  rankdir="RL";
  Node1 [label="bord",height=0.2,width=0.4,color="black", fillcolor="grey75", style="filled", fontcolor="black",tooltip="Fonction permettant de savoir si un le coup joué est sur un bord, dans un coin ou aucun des deux."];
  Node1 -> Node2 [dir="back",color="midnightblue",fontsize="10",style="solid",fontname="Helvetica"];
  Node2 [label="noteCoups",height=0.2,width=0.4,color="black", fillcolor="white", style="filled",URL="$minmax_8h.html#af25fe4de427fc3c902afad095d2b4ac6",tooltip="Fonction d'attibution des notes aux coups générés à partir d'une situation donnée...."];
  Node2 -> Node3 [dir="back",color="midnightblue",fontsize="10",style="solid",fontname="Helvetica"];
  Node3 [label="minMaxDown",height=0.2,width=0.4,color="black", fillcolor="white", style="filled",URL="$minmax_8h.html#a8c2bb3a353eb624f404fb20ebb9105cc",tooltip="Fonction permettant de descendre à la profondeur voulue dans l'arbre des coups et de noter les coups ..."];
  Node3 -> Node4 [dir="back",color="midnightblue",fontsize="10",style="solid",fontname="Helvetica"];
  Node4 [label="choixMinMax",height=0.2,width=0.4,color="black", fillcolor="white", style="filled",URL="$minmax_8h.html#a181a123467b337296d3cc8a703a84063",tooltip="Fonction de détermination du meilleur coup à joueur dans une situation donnée."];
  Node4 -> Node5 [dir="back",color="midnightblue",fontsize="10",style="solid",fontname="Helvetica"];
  Node5 [label="coup",height=0.2,width=0.4,color="black", fillcolor="white", style="filled",URL="$arbre_8h.html#ac43c64ac304ee65c41ec787b5bec0cba",tooltip="Fonction retournant le maillon choisit par le joueur actuel (ordinateur ou joueur humain)."];
  Node5 -> Node6 [dir="back",color="midnightblue",fontsize="10",style="solid",fontname="Helvetica"];
  Node6 [label="partie",height=0.2,width=0.4,color="black", fillcolor="white", style="filled",URL="$arbre_8h.html#ac696805cabb269cf4765655efca586da",tooltip="Fonction permettant de jouer une partie et de retourner le vainqueur."];
  Node3 -> Node7 [dir="back",color="midnightblue",fontsize="10",style="solid",fontname="Helvetica"];
  Node7 [label="remplissageMinMax",height=0.2,width=0.4,color="black", fillcolor="white", style="filled",URL="$minmax_8h.html#a477297d4fd4f0353cef773d45f47733a",tooltip="Fonction de détermination du meilleur coup à joueur dans une situation donnée."];
  Node7 -> Node6 [dir="back",color="midnightblue",fontsize="10",style="solid",fontname="Helvetica"];
  Node1 -> Node8 [dir="back",color="midnightblue",fontsize="10",style="solid",fontname="Helvetica"];
  Node8 [label="valMax",height=0.2,width=0.4,color="black", fillcolor="white", style="filled",URL="$minmax_8h.html#af32c850939d23e2b3349f367546a6a4c",tooltip="Trouve le maillon ayant le poids le plus élévé parmi les fils du maillon passé en paramètre."];
  Node8 -> Node4 [dir="back",color="midnightblue",fontsize="10",style="solid",fontname="Helvetica"];
  Node8 -> Node7 [dir="back",color="midnightblue",fontsize="10",style="solid",fontname="Helvetica"];
  Node8 -> Node9 [dir="back",color="midnightblue",fontsize="10",style="solid",fontname="Helvetica"];
  Node9 [label="valMin",height=0.2,width=0.4,color="black", fillcolor="white", style="filled",URL="$minmax_8h.html#a8fbc47f7821d2ef72e19e02b76cdf133",tooltip="Trouve le maillon ayant le poids le plus faible parmi les fils du maillon passé en paramètre."];
  Node9 -> Node4 [dir="back",color="midnightblue",fontsize="10",style="solid",fontname="Helvetica"];
  Node9 -> Node7 [dir="back",color="midnightblue",fontsize="10",style="solid",fontname="Helvetica"];
  Node9 -> Node8 [dir="back",color="midnightblue",fontsize="10",style="solid",fontname="Helvetica"];
  Node1 -> Node9 [dir="back",color="midnightblue",fontsize="10",style="solid",fontname="Helvetica"];
}
