digraph "minMaxDown"
{
 // LATEX_PDF_SIZE
  edge [fontname="Helvetica",fontsize="10",labelfontname="Helvetica",labelfontsize="10"];
  node [fontname="Helvetica",fontsize="10",shape=record];
  rankdir="RL";
  Node1 [label="minMaxDown",height=0.2,width=0.4,color="black", fillcolor="grey75", style="filled", fontcolor="black",tooltip="Fonction permettant de descendre à la profondeur voulue dans l'arbre des coups et de noter les coups ..."];
  Node1 -> Node2 [dir="back",color="midnightblue",fontsize="10",style="solid",fontname="Helvetica"];
  Node2 [label="choixMinMax",height=0.2,width=0.4,color="black", fillcolor="white", style="filled",URL="$minmax_8h.html#a181a123467b337296d3cc8a703a84063",tooltip="Fonction de détermination du meilleur coup à joueur dans une situation donnée."];
  Node2 -> Node3 [dir="back",color="midnightblue",fontsize="10",style="solid",fontname="Helvetica"];
  Node3 [label="coup",height=0.2,width=0.4,color="black", fillcolor="white", style="filled",URL="$arbre_8h.html#ac43c64ac304ee65c41ec787b5bec0cba",tooltip="Fonction retournant le maillon choisit par le joueur actuel (ordinateur ou joueur humain)."];
  Node3 -> Node4 [dir="back",color="midnightblue",fontsize="10",style="solid",fontname="Helvetica"];
  Node4 [label="partie",height=0.2,width=0.4,color="black", fillcolor="white", style="filled",URL="$arbre_8h.html#ac696805cabb269cf4765655efca586da",tooltip="Fonction permettant de jouer une partie et de retourner le vainqueur."];
  Node1 -> Node5 [dir="back",color="midnightblue",fontsize="10",style="solid",fontname="Helvetica"];
  Node5 [label="remplissageMinMax",height=0.2,width=0.4,color="black", fillcolor="white", style="filled",URL="$minmax_8h.html#a477297d4fd4f0353cef773d45f47733a",tooltip="Fonction de détermination du meilleur coup à joueur dans une situation donnée."];
  Node5 -> Node4 [dir="back",color="midnightblue",fontsize="10",style="solid",fontname="Helvetica"];
}
