digraph "freeTab"
{
 // LATEX_PDF_SIZE
  edge [fontname="Helvetica",fontsize="10",labelfontname="Helvetica",labelfontsize="10"];
  node [fontname="Helvetica",fontsize="10",shape=record];
  rankdir="RL";
  Node1 [label="freeTab",height=0.2,width=0.4,color="black", fillcolor="grey75", style="filled", fontcolor="black",tooltip="Libère l'espace mémoire alloué à un tableau 2D de 8x8."];
  Node1 -> Node2 [dir="back",color="midnightblue",fontsize="10",style="solid",fontname="Helvetica"];
  Node2 [label="freeListe",height=0.2,width=0.4,color="black", fillcolor="white", style="filled",URL="$arbre_8h.html#a7862fc83ab6453d85bc905fa5949c7c8",tooltip="Libère l'espace mémoire alloué à une liste et à l'intégralité de ses maillons."];
  Node1 -> Node3 [dir="back",color="midnightblue",fontsize="10",style="solid",fontname="Helvetica"];
  Node3 [label="partie",height=0.2,width=0.4,color="black", fillcolor="white", style="filled",URL="$arbre_8h.html#ac696805cabb269cf4765655efca586da",tooltip="Fonction permettant de jouer une partie et de retourner le vainqueur."];
}
